﻿Date,Timestamp,μmoles
2019-03-11, 17:14:40,24.3
2019-03-11, 17:14:41,23.9
2019-03-11, 17:14:42,23.9
2019-03-11, 17:14:43,23.6
2019-03-11, 17:14:44,23.7
2019-03-11, 17:14:45,24.1
2019-03-11, 17:14:46,24.2
2019-03-11, 17:14:47,23.8
2019-03-11, 17:14:48,23.1
2019-03-11, 17:14:49,23.7
2019-03-11, 17:14:50,23.8
2019-03-11, 17:14:51,23.5
2019-03-11, 17:14:52,23.7
2019-03-11, 17:14:53,23.9
2019-03-11, 17:14:54,24.2
2019-03-11, 17:14:55,23.9
2019-03-11, 17:14:56,23.5
2019-03-11, 17:14:57,23.9
2019-03-11, 17:14:58,24.1
2019-03-11, 17:14:59,23.9
2019-03-11, 17:15:00,23.8
2019-03-11, 17:15:01,23.7
2019-03-11, 17:15:02,23.7
2019-03-11, 17:15:03,23.7
2019-03-11, 17:15:04,23.5
2019-03-11, 17:15:05,23.5
2019-03-11, 17:15:06,23.9
2019-03-11, 17:15:07,24.3
2019-03-11, 17:15:08,24.3
2019-03-11, 17:15:09,24.3
2019-03-11, 17:15:10,24.2
2019-03-11, 17:15:11,24.2
2019-03-11, 17:15:12,24.0
2019-03-11, 17:15:13,24.0
2019-03-11, 17:15:14,24.2
2019-03-11, 17:15:15,24.2
2019-03-11, 17:15:16,24.0
2019-03-11, 17:15:17,24.1
2019-03-11, 17:15:18,24.1
2019-03-11, 17:15:19,24.0
2019-03-11, 17:15:20,24.2
2019-03-11, 17:15:21,24.2
2019-03-11, 17:15:22,24.1
2019-03-11, 17:15:23,23.9
2019-03-11, 17:15:24,24.1
2019-03-11, 17:15:25,24.3
2019-03-11, 17:15:26,24.3
2019-03-11, 17:15:27,23.8
2019-03-11, 17:15:28,23.9
2019-03-11, 17:15:29,23.4
2019-03-11, 17:15:30,23.3
2019-03-11, 17:15:31,23.7
2019-03-11, 17:15:32,23.0
2019-03-11, 17:15:33,22.7
2019-03-11, 17:15:34,22.7
2019-03-11, 17:15:35,23.6
2019-03-11, 17:15:36,24.0
2019-03-11, 17:15:37,24.3
2019-03-11, 17:15:38,23.9
2019-03-11, 17:15:39,24.0
2019-03-11, 17:15:40,24.1
2019-03-11, 17:15:41,23.0
2019-03-11, 17:15:42,23.1
2019-03-11, 17:15:43,23.8
2019-03-11, 17:15:44,23.8
2019-03-11, 17:15:45,24.0
2019-03-11, 17:15:46,24.3
2019-03-11, 17:15:47,24.2
2019-03-11, 17:15:48,23.5
2019-03-11, 17:15:49,24.2
2019-03-11, 17:15:50,24.2
2019-03-11, 17:15:51,24.3
2019-03-11, 17:15:52,24.0
2019-03-11, 17:15:53,23.6
2019-03-11, 17:15:54,23.7
2019-03-11, 17:15:55,23.7
2019-03-11, 17:15:56,24.0
2019-03-11, 17:15:57,23.9
2019-03-11, 17:15:58,23.5
2019-03-11, 17:15:59,24.0
2019-03-11, 17:16:00,24.0
2019-03-11, 17:16:01,23.7
2019-03-11, 17:16:02,23.5
2019-03-11, 17:16:03,23.6
2019-03-11, 17:16:04,23.7
2019-03-11, 17:16:05,23.8
2019-03-11, 17:16:06,23.8
2019-03-11, 17:16:07,24.1
2019-03-11, 17:16:08,24.1
2019-03-11, 17:16:09,24.1
2019-03-11, 17:16:10,23.8
2019-03-11, 17:16:11,23.4
2019-03-11, 17:16:12,23.6
2019-03-11, 17:16:13,23.9
2019-03-11, 17:16:14,24.3
2019-03-11, 17:16:15,24.2
2019-03-11, 17:16:16,24.2
2019-03-11, 17:16:17,23.8
2019-03-11, 17:16:18,23.5
2019-03-11, 17:16:19,23.3
2019-03-11, 17:16:20,23.7
2019-03-11, 17:16:21,23.6
2019-03-11, 17:16:22,23.6
2019-03-11, 17:16:23,23.7
2019-03-11, 17:16:24,23.1
2019-03-11, 17:16:25,23.2
2019-03-11, 17:16:26,23.4
2019-03-11, 17:16:27,23.8
2019-03-11, 17:16:28,24.1
2019-03-11, 17:16:29,24.0
2019-03-11, 17:16:30,24.0
2019-03-11, 17:16:31,23.4
2019-03-11, 17:16:32,23.3
2019-03-11, 17:16:33,23.6
2019-03-11, 17:16:34,23.9
2019-03-11, 17:16:35,24.1
2019-03-11, 17:16:36,24.3
2019-03-11, 17:16:37,24.3
2019-03-11, 17:16:38,24.2
2019-03-11, 17:16:39,24.2
2019-03-11, 17:16:40,24.2
2019-03-11, 17:16:41,24.3
2019-03-11, 17:16:42,24.3
2019-03-11, 17:16:43,24.2
2019-03-11, 17:16:44,24.3
2019-03-11, 17:16:45,24.3
2019-03-11, 17:16:46,24.2
2019-03-11, 17:16:47,24.3
2019-03-11, 17:16:48,24.2
2019-03-11, 17:16:49,24.1
2019-03-11, 17:16:50,24.1
2019-03-11, 17:16:51,23.7
2019-03-11, 17:16:52,23.6
2019-03-11, 17:16:53,23.5
2019-03-11, 17:16:54,23.4
2019-03-11, 17:16:55,24.0
2019-03-11, 17:16:56,24.0
2019-03-11, 17:16:57,23.6
2019-03-11, 17:16:58,23.1
2019-03-11, 17:16:59,23.8
2019-03-11, 17:17:00,24.1
2019-03-11, 17:17:01,24.3
2019-03-11, 17:17:02,24.2
2019-03-11, 17:17:03,24.1
2019-03-11, 17:17:04,24.3
2019-03-11, 17:17:05,24.3
2019-03-11, 17:17:06,24.3
2019-03-11, 17:17:07,24.2
2019-03-11, 17:17:08,24.1
2019-03-11, 17:17:09,24.1
2019-03-11, 17:17:10,24.3
2019-03-11, 17:17:11,24.2
2019-03-11, 17:17:12,24.0
2019-03-11, 17:17:13,24.1
2019-03-11, 17:17:14,24.0
2019-03-11, 17:17:15,23.5
2019-03-11, 17:17:16,23.8
2019-03-11, 17:17:17,24.1
2019-03-11, 17:17:18,24.0
2019-03-11, 17:17:19,23.9
2019-03-11, 17:17:20,23.8
2019-03-11, 17:17:21,24.1
2019-03-11, 17:17:22,24.2
2019-03-11, 17:17:23,24.3
2019-03-11, 17:17:24,24.3
2019-03-11, 17:17:25,24.2
2019-03-11, 17:17:26,24.1
2019-03-11, 17:17:27,24.0
2019-03-11, 17:17:28,24.0
2019-03-11, 17:17:29,24.0
2019-03-11, 17:17:30,24.1
2019-03-11, 17:17:31,24.1
2019-03-11, 17:17:32,23.5
2019-03-11, 17:17:33,23.8
2019-03-11, 17:17:34,24.3
2019-03-11, 17:17:35,24.3
2019-03-11, 17:17:36,24.2
2019-03-11, 17:17:37,24.3
2019-03-11, 17:17:38,24.3
2019-03-11, 17:17:39,24.3
2019-03-11, 17:17:40,24.3
2019-03-11, 17:17:41,24.2
2019-03-11, 17:17:42,24.3
2019-03-11, 17:17:43,24.3
2019-03-11, 17:17:44,24.3
2019-03-11, 17:17:45,24.2
2019-03-11, 17:17:46,24.3
2019-03-11, 17:17:47,24.3
2019-03-11, 17:17:48,24.3
2019-03-11, 17:17:49,24.3
2019-03-11, 17:17:50,24.3
2019-03-11, 17:17:51,24.3
2019-03-11, 17:17:52,24.3
2019-03-11, 17:17:53,24.4
2019-03-11, 17:17:54,24.6
2019-03-11, 17:17:55,24.3
2019-03-11, 17:17:56,24.3
2019-03-11, 17:17:57,24.5
2019-03-11, 17:17:58,24.3
2019-03-11, 17:17:59,24.7
2019-03-11, 17:18:00,24.5
2019-03-11, 17:18:01,24.3
2019-03-11, 17:18:02,24.3
2019-03-11, 17:18:03,24.4
2019-03-11, 17:18:04,24.3
2019-03-11, 17:18:05,24.4
2019-03-11, 17:18:06,24.5
2019-03-11, 17:18:07,24.4
2019-03-11, 17:18:08,24.3
2019-03-11, 17:18:09,24.2
2019-03-11, 17:18:10,24.2
2019-03-11, 17:18:11,24.3
2019-03-11, 17:18:12,24.3
2019-03-11, 17:18:13,24.4
2019-03-11, 17:18:14,24.4
2019-03-11, 17:18:15,24.3
2019-03-11, 17:18:16,24.3
2019-03-11, 17:18:17,24.3
2019-03-11, 17:18:18,24.4
2019-03-11, 17:18:19,24.4
2019-03-11, 17:18:20,24.4
2019-03-11, 17:18:21,24.5
2019-03-11, 17:18:22,24.3
2019-03-11, 17:18:23,24.4
2019-03-11, 17:18:24,24.4
2019-03-11, 17:18:25,24.4
2019-03-11, 17:18:26,24.2
2019-03-11, 17:18:27,24.3
2019-03-11, 17:18:28,24.6
2019-03-11, 17:18:29,24.5
2019-03-11, 17:18:31,24.3
2019-03-11, 17:18:31,24.5
2019-03-11, 17:18:32,24.6
2019-03-11, 17:18:34,24.2
2019-03-11, 17:18:34,23.8
2019-03-11, 17:18:36,24.6
2019-03-11, 17:18:37,24.1
2019-03-11, 17:18:38,24.5
2019-03-11, 17:18:39,24.4
2019-03-11, 17:18:40,24.4
2019-03-11, 17:18:41,24.3
2019-03-11, 17:18:42,24.2
2019-03-11, 17:18:43,24.2
2019-03-11, 17:18:44,24.0
2019-03-11, 17:18:45,23.9
2019-03-11, 17:18:46,24.0
2019-03-11, 17:18:47,24.1
2019-03-11, 17:18:48,24.7
2019-03-11, 17:18:49,24.3
2019-03-11, 17:18:50,23.7
2019-03-11, 17:18:51,24.0
2019-03-11, 17:18:52,24.0
2019-03-11, 17:18:53,88.4
2019-03-11, 17:18:54,360.1
2019-03-11, 17:18:55,414.2
2019-03-11, 17:18:56,417.7
2019-03-11, 17:18:57,416.9
2019-03-11, 17:18:58,417.0
2019-03-11, 17:18:59,417.7
2019-03-11, 17:19:00,417.7
2019-03-11, 17:19:01,417.0
2019-03-11, 17:19:02,416.9
2019-03-11, 17:19:03,417.2
2019-03-11, 17:19:04,417.3
2019-03-11, 17:19:05,417.5
2019-03-11, 17:19:06,417.0
2019-03-11, 17:19:07,417.1
2019-03-11, 17:19:08,417.5
2019-03-11, 17:19:09,416.8
2019-03-11, 17:19:10,416.4
2019-03-11, 17:19:11,417.1
2019-03-11, 17:19:12,417.3
2019-03-11, 17:19:13,417.0
2019-03-11, 17:19:14,417.3
2019-03-11, 17:19:15,417.6
2019-03-11, 17:19:16,417.4
2019-03-11, 17:19:17,417.1
2019-03-11, 17:19:18,417.2
2019-03-11, 17:19:19,417.3
2019-03-11, 17:19:20,417.3
2019-03-11, 17:19:21,417.3
2019-03-11, 17:19:22,417.4
2019-03-11, 17:19:23,417.6
2019-03-11, 17:19:24,417.1
2019-03-11, 17:19:25,417.2
2019-03-11, 17:19:26,417.7
2019-03-11, 17:19:27,417.5
2019-03-11, 17:19:28,417.3
2019-03-11, 17:19:29,417.5
2019-03-11, 17:19:30,417.8
2019-03-11, 17:19:31,417.5
2019-03-11, 17:19:32,417.1
2019-03-11, 17:19:33,417.2
2019-03-11, 17:19:34,417.6
2019-03-11, 17:19:35,417.2
2019-03-11, 17:19:36,416.9
2019-03-11, 17:19:37,417.7
2019-03-11, 17:19:38,417.8
2019-03-11, 17:19:39,417.2
2019-03-11, 17:19:40,417.3
2019-03-11, 17:19:41,417.8
2019-03-11, 17:19:42,417.6
2019-03-11, 17:19:43,416.8
2019-03-11, 17:19:44,417.0
2019-03-11, 17:19:45,418.0
2019-03-11, 17:19:46,417.3
2019-03-11, 17:19:47,416.8
2019-03-11, 17:19:48,417.6
2019-03-11, 17:19:49,417.5
2019-03-11, 17:19:50,417.4
2019-03-11, 17:19:51,417.6
2019-03-11, 17:19:52,417.7
2019-03-11, 17:19:53,417.3
2019-03-11, 17:19:54,417.2
2019-03-11, 17:19:55,417.5
2019-03-11, 17:19:56,417.5
2019-03-11, 17:19:57,417.0
2019-03-11, 17:19:58,417.1
2019-03-11, 17:19:59,417.0
2019-03-11, 17:20:00,416.6
2019-03-11, 17:20:01,416.8
2019-03-11, 17:20:02,416.8
2019-03-11, 17:20:03,416.8
2019-03-11, 17:20:04,416.8
2019-03-11, 17:20:05,417.1
2019-03-11, 17:20:06,417.5
2019-03-11, 17:20:07,417.3
2019-03-11, 17:20:08,417.5
2019-03-11, 17:20:09,417.8
2019-03-11, 17:20:10,417.4
2019-03-11, 17:20:11,417.1
2019-03-11, 17:20:12,417.3
2019-03-11, 17:20:13,417.3
2019-03-11, 17:20:14,417.2
2019-03-11, 17:20:15,417.7
2019-03-11, 17:20:16,417.7
2019-03-11, 17:20:17,417.1
2019-03-11, 17:20:18,417.3
2019-03-11, 17:20:19,417.7
2019-03-11, 17:20:20,417.1
2019-03-11, 17:20:21,417.2
2019-03-11, 17:20:22,417.6
2019-03-11, 17:20:23,417.5
2019-03-11, 17:20:24,416.8
2019-03-11, 17:20:25,416.6
2019-03-11, 17:20:26,417.1
2019-03-11, 17:20:27,416.6
2019-03-11, 17:20:28,416.3
2019-03-11, 17:20:29,417.7
2019-03-11, 17:20:30,417.3
2019-03-11, 17:20:31,416.4
2019-03-11, 17:20:32,416.6
2019-03-11, 17:20:33,417.5
2019-03-11, 17:20:34,417.2
2019-03-11, 17:20:35,415.5
2019-03-11, 17:20:36,416.7
2019-03-11, 17:20:37,417.6
2019-03-11, 17:20:38,416.9
2019-03-11, 17:20:39,417.0
2019-03-11, 17:20:40,417.5
2019-03-11, 17:20:41,416.9
2019-03-11, 17:20:42,416.6
2019-03-11, 17:20:43,416.9
2019-03-11, 17:20:44,417.6
2019-03-11, 17:20:45,417.5
2019-03-11, 17:20:46,416.5
2019-03-11, 17:20:47,417.4
2019-03-11, 17:20:48,417.3
2019-03-11, 17:20:49,416.8
2019-03-11, 17:20:50,416.6
2019-03-11, 17:20:51,417.0
2019-03-11, 17:20:52,416.9
2019-03-11, 17:20:53,416.5
2019-03-11, 17:20:54,416.6
2019-03-11, 17:20:55,417.3
2019-03-11, 17:20:56,417.4
2019-03-11, 17:20:57,417.2
2019-03-11, 17:20:58,417.0
2019-03-11, 17:20:59,417.1
2019-03-11, 17:21:00,416.7
2019-03-11, 17:21:01,416.4
2019-03-11, 17:21:02,416.6
2019-03-11, 17:21:03,417.0
2019-03-11, 17:21:04,417.0
2019-03-11, 17:21:05,417.0
2019-03-11, 17:21:06,417.3
2019-03-11, 17:21:07,417.5
2019-03-11, 17:21:08,417.3
2019-03-11, 17:21:09,417.3
2019-03-11, 17:21:10,418.0
2019-03-11, 17:21:11,202.2
2019-03-11, 17:21:12,55.4
2019-03-11, 17:21:13,25.9
2019-03-11, 17:21:14,24.2
2019-03-11, 17:21:15,23.8
2019-03-11, 17:21:16,23.5
2019-03-11, 17:21:17,23.6
2019-03-11, 17:21:18,24.0
2019-03-11, 17:21:19,24.3
2019-03-11, 17:21:20,23.9
2019-03-11, 17:21:21,24.3
2019-03-11, 17:21:22,24.2
2019-03-11, 17:21:23,23.9
2019-03-11, 17:21:24,24.1
2019-03-11, 17:21:25,24.3
2019-03-11, 17:21:26,24.2
2019-03-11, 17:21:27,24.0
2019-03-11, 17:21:28,24.0
2019-03-11, 17:21:29,24.1
2019-03-11, 17:21:30,24.2
2019-03-11, 17:21:31,24.0
2019-03-11, 17:21:32,24.0
2019-03-11, 17:21:33,24.0
2019-03-11, 17:21:34,24.0
2019-03-11, 17:21:35,24.1
2019-03-11, 17:21:36,24.0
2019-03-11, 17:21:37,23.9
2019-03-11, 17:21:38,24.2
2019-03-11, 17:21:39,24.1
2019-03-11, 17:21:40,24.1
2019-03-11, 17:21:41,24.1
2019-03-11, 17:21:42,23.9
2019-03-11, 17:21:43,24.1
2019-03-11, 17:21:44,24.0
2019-03-11, 17:21:45,23.4
2019-03-11, 17:21:46,23.3
2019-03-11, 17:21:47,23.8
2019-03-11, 17:21:48,23.8
2019-03-11, 17:21:49,23.7
2019-03-11, 17:21:50,23.6
2019-03-11, 17:21:51,23.8
2019-03-11, 17:21:52,23.9
2019-03-11, 17:21:53,24.0
2019-03-11, 17:21:54,24.1
2019-03-11, 17:21:55,23.9
2019-03-11, 17:21:56,23.9
2019-03-11, 17:21:57,23.9
2019-03-11, 17:21:58,24.0
2019-03-11, 17:21:59,23.9
2019-03-11, 17:22:00,24.1
2019-03-11, 17:22:01,23.5
2019-03-11, 17:22:02,23.4
2019-03-11, 17:22:03,23.7
2019-03-11, 17:22:04,23.8
2019-03-11, 17:22:05,24.0
2019-03-11, 17:22:06,24.1
2019-03-11, 17:22:07,23.7
2019-03-11, 17:22:08,23.1
2019-03-11, 17:22:09,23.2
2019-03-11, 17:22:10,22.7
2019-03-11, 17:22:11,22.5
2019-03-11, 17:22:12,22.5
2019-03-11, 17:22:13,22.4
2019-03-11, 17:22:14,23.0
2019-03-11, 17:22:15,24.0
2019-03-11, 17:22:16,23.5
2019-03-11, 17:22:17,23.4
2019-03-11, 17:22:18,24.1
2019-03-11, 17:22:19,23.8
2019-03-11, 17:22:20,23.8
2019-03-11, 17:22:21,23.9
2019-03-11, 17:22:22,23.6
2019-03-11, 17:22:23,23.7
2019-03-11, 17:22:24,23.4
2019-03-11, 17:22:25,23.5
2019-03-11, 17:22:26,23.8
2019-03-11, 17:22:27,23.8
2019-03-11, 17:22:28,23.0
2019-03-11, 17:22:29,23.6
2019-03-11, 17:22:30,23.3
2019-03-11, 17:22:31,23.7
2019-03-11, 17:22:32,23.9
2019-03-11, 17:22:33,23.5
2019-03-11, 17:22:34,23.6
2019-03-11, 17:22:35,24.0
2019-03-11, 17:22:36,23.6
2019-03-11, 17:22:37,23.6
2019-03-11, 17:22:38,23.9
2019-03-11, 17:22:39,23.8
2019-03-11, 17:22:40,23.6
2019-03-11, 17:22:41,23.6
2019-03-11, 17:22:42,23.7
2019-03-11, 17:22:43,23.8
2019-03-11, 17:22:44,23.8
2019-03-11, 17:22:45,23.9
2019-03-11, 17:22:46,24.0
2019-03-11, 17:22:47,24.0
2019-03-11, 17:22:49,23.8
2019-03-11, 17:22:50,23.6
2019-03-11, 17:22:51,23.2
2019-03-11, 17:22:52,23.9
2019-03-11, 17:22:53,23.6
2019-03-11, 17:22:54,24.0
2019-03-11, 17:22:55,23.7
2019-03-11, 17:22:56,23.5
2019-03-11, 17:22:57,23.1
2019-03-11, 17:22:58,23.1
2019-03-11, 17:22:59,23.7
2019-03-11, 17:23:00,24.1
2019-03-11, 17:23:01,24.0
2019-03-11, 17:23:02,23.9
2019-03-11, 17:23:03,23.8
2019-03-11, 17:23:04,23.9
2019-03-11, 17:23:05,24.0
2019-03-11, 17:23:06,23.5
2019-03-11, 17:23:07,24.0
2019-03-11, 17:23:08,23.4
2019-03-11, 17:23:09,24.0
